<?xml version="1.0" encoding="UTF-8" standalone="no"?><svg xmlns="http://www.w3.org/2000/svg" xmlns:xlink="http://www.w3.org/1999/xlink" contentScriptType="application/ecmascript" contentStyleType="text/css" height="541px" preserveAspectRatio="none" style="width:858px;height:541px;" version="1.1" viewBox="0 0 858 541" width="858px" zoomAndPan="magnify"><defs><filter height="300%" id="f1azrqrtncxv8q" width="300%" x="-1" y="-1"><feGaussianBlur result="blurOut" stdDeviation="2.0"/><feColorMatrix in="blurOut" result="blurOut2" type="matrix" values="0 0 0 0 0 0 0 0 0 0 0 0 0 0 0 0 0 0 .4 0"/><feOffset dx="4.0" dy="4.0" in="blurOut2" result="blurOut3"/><feBlend in="SourceGraphic" in2="blurOut3" mode="normal"/></filter></defs><g><rect fill="#FFFFFF" filter="url(#f1azrqrtncxv8q)" height="100.3984" style="stroke: #A80036; stroke-width: 1.0;" width="10" x="312" y="138.9922"/><rect fill="#FFFFFF" filter="url(#f1azrqrtncxv8q)" height="256.3906" style="stroke: #A80036; stroke-width: 1.0;" width="10" x="439" y="210.2578"/><rect fill="#FFFFFF" filter="url(#f1azrqrtncxv8q)" height="71.2656" style="stroke: #A80036; stroke-width: 1.0;" width="10" x="736.5" y="366.25"/><rect fill="#FFFFFF" filter="url(#f1azrqrtncxv8q)" height="146.6641" style="stroke: #000000; stroke-width: 2.0;" width="496" x="13" y="100.7266"/><line style="stroke: #A80036; stroke-width: 1.0; stroke-dasharray: 5.0,5.0;" x1="60" x2="60" y1="54.5938" y2="484.6484"/><line style="stroke: #A80036; stroke-width: 1.0; stroke-dasharray: 5.0,5.0;" x1="176" x2="176" y1="54.5938" y2="484.6484"/><line style="stroke: #A80036; stroke-width: 1.0; stroke-dasharray: 5.0,5.0;" x1="317" x2="317" y1="54.5938" y2="484.6484"/><line style="stroke: #A80036; stroke-width: 1.0; stroke-dasharray: 5.0,5.0;" x1="444" x2="444" y1="54.5938" y2="484.6484"/><line style="stroke: #A80036; stroke-width: 1.0; stroke-dasharray: 5.0,5.0;" x1="571" x2="571" y1="54.5938" y2="484.6484"/><line style="stroke: #A80036; stroke-width: 1.0; stroke-dasharray: 5.0,5.0;" x1="741" x2="741" y1="324.3203" y2="484.6484"/><rect fill="#FEFECE" filter="url(#f1azrqrtncxv8q)" height="46.5938" style="stroke: #A80036; stroke-width: 1.5;" width="71" x="23" y="3"/><text fill="#000000" font-family="sans-serif" font-size="14" font-style="italic" lengthAdjust="spacingAndGlyphs" textLength="57" x="30" y="22.9951">«client»</text><text fill="#000000" font-family="sans-serif" font-size="14" lengthAdjust="spacingAndGlyphs" textLength="39" x="39" y="39.292">Kiosk</text><rect fill="#FEFECE" filter="url(#f1azrqrtncxv8q)" height="46.5938" style="stroke: #A80036; stroke-width: 1.5;" width="71" x="23" y="483.6484"/><text fill="#000000" font-family="sans-serif" font-size="14" font-style="italic" lengthAdjust="spacingAndGlyphs" textLength="57" x="30" y="503.6436">«client»</text><text fill="#000000" font-family="sans-serif" font-size="14" lengthAdjust="spacingAndGlyphs" textLength="39" x="39" y="519.9404">Kiosk</text><rect fill="#FEFECE" filter="url(#f1azrqrtncxv8q)" height="30.2969" style="stroke: #A80036; stroke-width: 1.5;" width="133" x="108" y="19.2969"/><text fill="#000000" font-family="sans-serif" font-size="14" lengthAdjust="spacingAndGlyphs" textLength="119" x="115" y="39.292">BookingDaemon</text><rect fill="#FEFECE" filter="url(#f1azrqrtncxv8q)" height="30.2969" style="stroke: #A80036; stroke-width: 1.5;" width="133" x="108" y="483.6484"/><text fill="#000000" font-family="sans-serif" font-size="14" lengthAdjust="spacingAndGlyphs" textLength="119" x="115" y="503.6436">BookingDaemon</text><rect fill="#FEFECE" filter="url(#f1azrqrtncxv8q)" height="30.2969" style="stroke: #A80036; stroke-width: 1.5;" width="120" x="255" y="19.2969"/><text fill="#000000" font-family="sans-serif" font-size="14" lengthAdjust="spacingAndGlyphs" textLength="106" x="262" y="39.292">BookingServer</text><rect fill="#FEFECE" filter="url(#f1azrqrtncxv8q)" height="30.2969" style="stroke: #A80036; stroke-width: 1.5;" width="120" x="255" y="483.6484"/><text fill="#000000" font-family="sans-serif" font-size="14" lengthAdjust="spacingAndGlyphs" textLength="106" x="262" y="503.6436">BookingServer</text><rect fill="#FEFECE" filter="url(#f1azrqrtncxv8q)" height="46.5938" style="stroke: #A80036; stroke-width: 1.5;" width="106" x="389" y="3"/><text fill="#000000" font-family="sans-serif" font-size="14" font-style="italic" lengthAdjust="spacingAndGlyphs" textLength="65" x="409.5" y="22.9951">«thread»</text><text fill="#000000" font-family="sans-serif" font-size="14" lengthAdjust="spacingAndGlyphs" textLength="92" x="396" y="39.292">HandleClient</text><rect fill="#FEFECE" filter="url(#f1azrqrtncxv8q)" height="46.5938" style="stroke: #A80036; stroke-width: 1.5;" width="106" x="389" y="483.6484"/><text fill="#000000" font-family="sans-serif" font-size="14" font-style="italic" lengthAdjust="spacingAndGlyphs" textLength="65" x="409.5" y="503.6436">«thread»</text><text fill="#000000" font-family="sans-serif" font-size="14" lengthAdjust="spacingAndGlyphs" textLength="92" x="396" y="519.9404">HandleClient</text><rect fill="#FEFECE" filter="url(#f1azrqrtncxv8q)" height="30.2969" style="stroke: #A80036; stroke-width: 1.5;" width="120" x="509" y="19.2969"/><text fill="#000000" font-family="sans-serif" font-size="14" lengthAdjust="spacingAndGlyphs" textLength="106" x="516" y="39.292">MessageParser</text><rect fill="#FEFECE" filter="url(#f1azrqrtncxv8q)" height="30.2969" style="stroke: #A80036; stroke-width: 1.5;" width="120" x="509" y="483.6484"/><text fill="#000000" font-family="sans-serif" font-size="14" lengthAdjust="spacingAndGlyphs" textLength="106" x="516" y="503.6436">MessageParser</text><rect fill="#FEFECE" filter="url(#f1azrqrtncxv8q)" height="46.5938" style="stroke: #A80036; stroke-width: 1.5;" width="193" x="643" y="483.6484"/><text fill="#000000" font-family="sans-serif" font-size="14" font-style="italic" lengthAdjust="spacingAndGlyphs" textLength="76" x="701.5" y="503.6436">«abstract»</text><text fill="#000000" font-family="sans-serif" font-size="14" lengthAdjust="spacingAndGlyphs" textLength="179" x="650" y="519.9404">BookingProtocolRequest</text><rect fill="#FFFFFF" filter="url(#f1azrqrtncxv8q)" height="100.3984" style="stroke: #A80036; stroke-width: 1.0;" width="10" x="312" y="138.9922"/><rect fill="#FFFFFF" filter="url(#f1azrqrtncxv8q)" height="256.3906" style="stroke: #A80036; stroke-width: 1.0;" width="10" x="439" y="210.2578"/><rect fill="#FFFFFF" filter="url(#f1azrqrtncxv8q)" height="71.2656" style="stroke: #A80036; stroke-width: 1.0;" width="10" x="736.5" y="366.25"/><polygon fill="#A80036" points="305,81.7266,315,85.7266,305,89.7266,309,85.7266" style="stroke: #A80036; stroke-width: 1.0;"/><line style="stroke: #A80036; stroke-width: 1.0;" x1="176.5" x2="311" y1="85.7266" y2="85.7266"/><text fill="#000000" font-family="sans-serif" font-size="13" lengthAdjust="spacingAndGlyphs" textLength="27" x="183.5" y="80.6606">new</text><path d="M13,100.7266 L91,100.7266 L91,107.7266 L81,117.7266 L13,117.7266 L13,100.7266 " fill="#EEEEEE" style="stroke: #000000; stroke-width: 1.0;"/><rect fill="none" height="146.6641" style="stroke: #000000; stroke-width: 2.0;" width="496" x="13" y="100.7266"/><text fill="#000000" font-family="sans-serif" font-size="13" font-weight="bold" lengthAdjust="spacingAndGlyphs" textLength="33" x="28" y="113.7935">loop</text><text fill="#000000" font-family="sans-serif" font-size="11" font-weight="bold" lengthAdjust="spacingAndGlyphs" textLength="39" x="106" y="112.937">[true]</text><polygon fill="#A80036" points="300,134.9922,310,138.9922,300,142.9922,304,138.9922" style="stroke: #A80036; stroke-width: 1.0;"/><line style="stroke: #A80036; stroke-width: 1.0;" x1="176.5" x2="306" y1="138.9922" y2="138.9922"/><text fill="#000000" font-family="sans-serif" font-size="13" lengthAdjust="spacingAndGlyphs" textLength="30" x="183.5" y="133.9263">start</text><line style="stroke: #A80036; stroke-width: 1.0;" x1="322" x2="364" y1="168.125" y2="168.125"/><line style="stroke: #A80036; stroke-width: 1.0;" x1="364" x2="364" y1="168.125" y2="181.125"/><line style="stroke: #A80036; stroke-width: 1.0;" x1="323" x2="364" y1="181.125" y2="181.125"/><polygon fill="#A80036" points="333,177.125,323,181.125,333,185.125,329,181.125" style="stroke: #A80036; stroke-width: 1.0;"/><text fill="#000000" font-family="sans-serif" font-size="13" lengthAdjust="spacingAndGlyphs" textLength="43" x="329" y="163.0591">accept</text><polygon fill="#A80036" points="300,206.2578,310,210.2578,300,214.2578,304,210.2578" style="stroke: #A80036; stroke-width: 1.0;"/><line style="stroke: #A80036; stroke-width: 1.0; stroke-dasharray: 2.0,2.0;" x1="60.5" x2="306" y1="210.2578" y2="210.2578"/><text fill="#000000" font-family="sans-serif" font-size="13" lengthAdjust="spacingAndGlyphs" textLength="49" x="67.5" y="205.1919">request</text><polygon fill="#A80036" points="427,235.3906,437,239.3906,427,239.3906" style="stroke: #A80036; stroke-width: 1.0;"/><line style="stroke: #A80036; stroke-width: 1.0;" x1="317" x2="438" y1="239.3906" y2="239.3906"/><text fill="#000000" font-family="sans-serif" font-size="13" lengthAdjust="spacingAndGlyphs" textLength="30" x="324" y="234.3247">start</text><polygon fill="#A80036" points="559,271.5234,569,275.5234,559,279.5234,563,275.5234" style="stroke: #A80036; stroke-width: 1.0;"/><line style="stroke: #A80036; stroke-width: 1.0;" x1="449" x2="565" y1="275.5234" y2="275.5234"/><text fill="#000000" font-family="sans-serif" font-size="13" lengthAdjust="spacingAndGlyphs" textLength="95" x="456" y="270.4575">parse(request)</text><polygon fill="#A80036" points="631,300.6563,641,304.6563,631,308.6563,635,304.6563" style="stroke: #A80036; stroke-width: 1.0;"/><line style="stroke: #A80036; stroke-width: 1.0;" x1="571" x2="637" y1="304.6563" y2="304.6563"/><text fill="#000000" font-family="sans-serif" font-size="13" lengthAdjust="spacingAndGlyphs" textLength="27" x="578" y="299.5903">new</text><rect fill="#FEFECE" filter="url(#f1azrqrtncxv8q)" height="46.5938" style="stroke: #A80036; stroke-width: 1.5;" width="193" x="643" y="283.5234"/><text fill="#000000" font-family="sans-serif" font-size="14" font-style="italic" lengthAdjust="spacingAndGlyphs" textLength="76" x="701.5" y="303.5186">«abstract»</text><text fill="#000000" font-family="sans-serif" font-size="14" lengthAdjust="spacingAndGlyphs" textLength="179" x="650" y="319.8154">BookingProtocolRequest</text><polygon fill="#A80036" points="724.5,362.25,734.5,366.25,724.5,370.25,728.5,366.25" style="stroke: #A80036; stroke-width: 1.0;"/><line style="stroke: #A80036; stroke-width: 1.0;" x1="449" x2="730.5" y1="366.25" y2="366.25"/><text fill="#000000" font-family="sans-serif" font-size="13" lengthAdjust="spacingAndGlyphs" textLength="52" x="456" y="361.1841">execute</text><line style="stroke: #A80036; stroke-width: 1.0;" x1="746.5" x2="788.5" y1="395.3828" y2="395.3828"/><line style="stroke: #A80036; stroke-width: 1.0;" x1="788.5" x2="788.5" y1="395.3828" y2="408.3828"/><line style="stroke: #A80036; stroke-width: 1.0;" x1="747.5" x2="788.5" y1="408.3828" y2="408.3828"/><polygon fill="#A80036" points="757.5,404.3828,747.5,408.3828,757.5,412.3828,753.5,408.3828" style="stroke: #A80036; stroke-width: 1.0;"/><text fill="#000000" font-family="sans-serif" font-size="13" lengthAdjust="spacingAndGlyphs" textLength="93" x="753.5" y="390.3169">buildResponse</text><polygon fill="#A80036" points="460,433.5156,450,437.5156,460,441.5156,456,437.5156" style="stroke: #A80036; stroke-width: 1.0;"/><line style="stroke: #A80036; stroke-width: 1.0; stroke-dasharray: 2.0,2.0;" x1="454" x2="740.5" y1="437.5156" y2="437.5156"/><text fill="#000000" font-family="sans-serif" font-size="13" lengthAdjust="spacingAndGlyphs" textLength="59" x="466" y="432.4497">response</text><polygon fill="#A80036" points="71.5,462.6484,61.5,466.6484,71.5,470.6484,67.5,466.6484" style="stroke: #A80036; stroke-width: 1.0;"/><line style="stroke: #A80036; stroke-width: 1.0; stroke-dasharray: 2.0,2.0;" x1="65.5" x2="443" y1="466.6484" y2="466.6484"/><text fill="#000000" font-family="sans-serif" font-size="13" lengthAdjust="spacingAndGlyphs" textLength="59" x="77.5" y="461.5825">response</text><!--MD5=[5c45b612689438f3d64bf470bafcae90]
@startuml
participant Kiosk <<client>>

BookingDaemon -> BookingServer : new
loop true
BookingDaemon -> BookingServer: start
Activate BookingServer
BookingServer -> BookingServer: accept

Kiosk - -> BookingServer: request

participant HandleClient <<thread>>
activate HandleClient
BookingServer -\ HandleClient: start
deactivate BookingServer
end

HandleClient -> MessageParser:parse(request)
create BookingProtocolRequest <<abstract>>
MessageParser -> BookingProtocolRequest:new

HandleClient -> BookingProtocolRequest: execute
activate BookingProtocolRequest
BookingProtocolRequest -> BookingProtocolRequest:buildResponse
BookingProtocolRequest - -> HandleClient: response
deactivate BookingProtocolRequest

HandleClient - -> Kiosk: response
deactivate HandleClient
@enduml

PlantUML version 1.2020.11(Sat May 30 10:13:43 UTC 2020)
(GPL source distribution)
Java Runtime: Java(TM) SE Runtime Environment
JVM: Java HotSpot(TM) 64-Bit Server VM
Default Encoding: UTF-8
Language: en
Country: US
--></g></svg>